PCBNEW-LibModule-V1  2023-10-03 14:06:32
# encoding utf-8
Units mm
$INDEX
1017503
$EndINDEX
$MODULE 1017503
Po 0 0 0 15 651c11d8 00000000 ~~
Li 1017503
Cd 1017503
Kw Connector
Sc 0
At STD
AR 
Op 0 0 0
T0 0 0 1.27 1.27 0 0.254 N V 21 N "J**"
T1 0 0 1.27 1.27 0 0.254 N I 21 N "1017503"
DS -2.94 -2.25 8.02 -2.25 0.2 24
DS 8.02 -2.25 8.02 15.75 0.2 24
DS 8.02 15.75 -2.94 15.75 0.2 24
DS -2.94 15.75 -2.94 -2.25 0.2 24
DS -2.94 -2.25 8.02 -2.25 0.1 21
DS 8.02 -2.25 8.02 15.75 0.1 21
DS 8.02 15.75 -2.94 15.75 0.1 21
DS -2.94 15.75 -2.94 -2.25 0.1 21
DS -4.75 -3.25 9.02 -3.25 0.05 24
DS 9.02 -3.25 9.02 16.75 0.05 24
DS 9.02 16.75 -4.75 16.75 0.05 24
DS -4.75 16.75 -4.75 -3.25 0.05 24
DC -3.85 0 -3.9 0 0.254 21
$PAD
Po 0 0
Sh "1" R 2.1 2.1 0 0 900
Dr 1.4 0 0
At STD N 00E0FFFF
Ne 0 ""
$EndPAD
$PAD
Po 0 8.7
Sh "2" C 2.1 2.1 0 0 900
Dr 1.4 0 0
At STD N 00E0FFFF
Ne 0 ""
$EndPAD
$PAD
Po 5.08 0
Sh "3" C 2.1 2.1 0 0 900
Dr 1.4 0 0
At STD N 00E0FFFF
Ne 0 ""
$EndPAD
$PAD
Po 5.08 8.7
Sh "4" C 2.1 2.1 0 0 900
Dr 1.4 0 0
At STD N 00E0FFFF
Ne 0 ""
$EndPAD
$EndMODULE 1017503
$EndLIBRARY
