PCBNEW-LibModule-V1  2023-10-03 13:53:06
# encoding utf-8
Units mm
$INDEX
1751192
$EndINDEX
$MODULE 1751192
Po 0 0 0 15 651c0eb2 00000000 ~~
Li 1751192
Cd 1751192
Kw Connector
Sc 0
At STD
AR 
Op 0 0 0
T0 0 0 1.27 1.27 0 0.254 N V 21 N "J**"
T1 0 0 1.27 1.27 0 0.254 N I 21 N "1751192"
DS -4.67 -9.1 20.96 -9.1 0.2 24
DS 20.96 -9.1 20.96 2.9 0.2 24
DS 20.96 2.9 -4.67 2.9 0.2 24
DS -4.67 2.9 -4.67 -9.1 0.2 24
DS 20.96 -9.1 20.96 2.9 0.1 21
DS -4.67 2.9 -4.67 -9.1 0.1 21
DS -5.67 -10.1 21.96 -10.1 0.05 24
DS 21.96 -10.1 21.96 3.9 0.05 24
DS 21.96 3.9 -5.67 3.9 0.05 24
DS -5.67 3.9 -5.67 -10.1 0.05 24
$PAD
Po 0 0
Sh "1" R 1.8 1.8 0 0 900
Dr 1.1 0 0
At STD N 00E0FFFF
Ne 0 ""
$EndPAD
$PAD
Po 0 -7
Sh "2" C 1.8 1.8 0 0 900
Dr 1.1 0 0
At STD N 00E0FFFF
Ne 0 ""
$EndPAD
$PAD
Po 3.81 0
Sh "3" C 1.8 1.8 0 0 900
Dr 1.1 0 0
At STD N 00E0FFFF
Ne 0 ""
$EndPAD
$PAD
Po 3.81 -7
Sh "4" C 1.8 1.8 0 0 900
Dr 1.1 0 0
At STD N 00E0FFFF
Ne 0 ""
$EndPAD
$PAD
Po 7.62 0
Sh "5" C 1.8 1.8 0 0 900
Dr 1.1 0 0
At STD N 00E0FFFF
Ne 0 ""
$EndPAD
$PAD
Po 7.62 -7
Sh "6" C 1.8 1.8 0 0 900
Dr 1.1 0 0
At STD N 00E0FFFF
Ne 0 ""
$EndPAD
$PAD
Po 11.43 0
Sh "7" C 1.8 1.8 0 0 900
Dr 1.1 0 0
At STD N 00E0FFFF
Ne 0 ""
$EndPAD
$PAD
Po 11.43 -7
Sh "8" C 1.8 1.8 0 0 900
Dr 1.1 0 0
At STD N 00E0FFFF
Ne 0 ""
$EndPAD
$PAD
Po 15.24 0
Sh "9" C 1.8 1.8 0 0 900
Dr 1.1 0 0
At STD N 00E0FFFF
Ne 0 ""
$EndPAD
$PAD
Po 15.24 -7
Sh "10" C 1.8 1.8 0 0 900
Dr 1.1 0 0
At STD N 00E0FFFF
Ne 0 ""
$EndPAD
$EndMODULE 1751192
$EndLIBRARY
