(module LOGO (layer F.Cu) (tedit 0)
  (fp_text reference G*** (at 0 0) (layer F.SilkS) hide
    (effects (font (thickness 0.3)))
  )
  (fp_text value LOGO (at 0.75 0) (layer F.SilkS) hide
    (effects (font (thickness 0.3)))
  )
  (fp_poly (pts (xy 3.1877 2.4257) (xy -3.175 2.4257) (xy -3.175 -0.061814) (xy -3.062081 -0.061814)
    (xy -3.062059 0.147467) (xy -3.061913 0.355699) (xy -3.061641 0.561326) (xy -3.061245 0.762792)
    (xy -3.060725 0.958541) (xy -3.060079 1.147018) (xy -3.059309 1.326667) (xy -3.058413 1.495931)
    (xy -3.057394 1.653255) (xy -3.056249 1.797084) (xy -3.054979 1.925861) (xy -3.053585 2.038031)
    (xy -3.052066 2.132037) (xy -3.050422 2.206325) (xy -3.048654 2.259337) (xy -3.046761 2.289519)
    (xy -3.045461 2.29616) (xy -3.038286 2.297884) (xy -3.019835 2.299485) (xy -2.989354 2.300966)
    (xy -2.946091 2.30233) (xy -2.889291 2.303582) (xy -2.818201 2.304724) (xy -2.732069 2.305762)
    (xy -2.630139 2.306698) (xy -2.51166 2.307537) (xy -2.375877 2.308282) (xy -2.222037 2.308937)
    (xy -2.049387 2.309505) (xy -1.857174 2.309991) (xy -1.644643 2.310399) (xy -1.411042 2.310731)
    (xy -1.155616 2.310992) (xy -0.877614 2.311185) (xy -0.57628 2.311315) (xy -0.250863 2.311384)
    (xy 0.008169 2.3114) (xy 3.046559 2.3114) (xy 3.066329 2.283174) (xy 3.06881 2.277782)
    (xy 3.071076 2.268275) (xy 3.073138 2.253564) (xy 3.075006 2.232556) (xy 3.076688 2.204161)
    (xy 3.078193 2.167289) (xy 3.079533 2.120849) (xy 3.080715 2.06375) (xy 3.08175 1.994902)
    (xy 3.082647 1.913213) (xy 3.083415 1.817594) (xy 3.084064 1.706953) (xy 3.084603 1.580199)
    (xy 3.085042 1.436243) (xy 3.085389 1.273993) (xy 3.085656 1.092358) (xy 3.08585 0.890249)
    (xy 3.085982 0.666573) (xy 3.08606 0.420241) (xy 3.086095 0.150162) (xy 3.0861 0.001349)
    (xy 3.086087 -0.280333) (xy 3.086043 -0.537714) (xy 3.085956 -0.771897) (xy 3.085817 -0.983982)
    (xy 3.085616 -1.175069) (xy 3.085343 -1.346258) (xy 3.084987 -1.498651) (xy 3.084538 -1.633348)
    (xy 3.083986 -1.75145) (xy 3.083321 -1.854056) (xy 3.082532 -1.942268) (xy 3.08161 -2.017186)
    (xy 3.080545 -2.079911) (xy 3.079325 -2.131544) (xy 3.077942 -2.173184) (xy 3.076384 -2.205932)
    (xy 3.074643 -2.23089) (xy 3.072707 -2.249156) (xy 3.070566 -2.261833) (xy 3.06821 -2.270021)
    (xy 3.06563 -2.27482) (xy 3.065081 -2.275475) (xy 3.062154 -2.277983) (xy 3.057447 -2.280304)
    (xy 3.05001 -2.282444) (xy 3.038888 -2.284412) (xy 3.023128 -2.286215) (xy 3.001777 -2.28786)
    (xy 2.973883 -2.289354) (xy 2.938492 -2.290704) (xy 2.894651 -2.291918) (xy 2.841406 -2.293002)
    (xy 2.777806 -2.293965) (xy 2.702896 -2.294813) (xy 2.615725 -2.295554) (xy 2.515337 -2.296195)
    (xy 2.400782 -2.296742) (xy 2.271105 -2.297204) (xy 2.125353 -2.297587) (xy 1.962574 -2.297899)
    (xy 1.781814 -2.298148) (xy 1.58212 -2.298339) (xy 1.362539 -2.298481) (xy 1.122118 -2.29858)
    (xy 0.859905 -2.298645) (xy 0.574945 -2.298681) (xy 0.266286 -2.298698) (xy 0.006921 -2.2987)
    (xy -0.336891 -2.298673) (xy -0.656057 -2.298589) (xy -0.951329 -2.298443) (xy -1.223463 -2.298233)
    (xy -1.473211 -2.297954) (xy -1.701327 -2.297603) (xy -1.908564 -2.297176) (xy -2.095676 -2.296669)
    (xy -2.263417 -2.296079) (xy -2.41254 -2.295401) (xy -2.543799 -2.294633) (xy -2.657947 -2.293769)
    (xy -2.755738 -2.292807) (xy -2.837925 -2.291742) (xy -2.905263 -2.290572) (xy -2.958504 -2.289291)
    (xy -2.998402 -2.287897) (xy -3.02571 -2.286386) (xy -3.041183 -2.284753) (xy -3.045461 -2.28346)
    (xy -3.047435 -2.268983) (xy -3.049285 -2.230662) (xy -3.05101 -2.170052) (xy -3.05261 -2.088711)
    (xy -3.054086 -1.988193) (xy -3.055436 -1.870054) (xy -3.056662 -1.73585) (xy -3.057763 -1.587138)
    (xy -3.05874 -1.425472) (xy -3.059591 -1.25241) (xy -3.060318 -1.069505) (xy -3.06092 -0.878315)
    (xy -3.061398 -0.680395) (xy -3.06175 -0.477301) (xy -3.061978 -0.270589) (xy -3.062081 -0.061814)
    (xy -3.175 -0.061814) (xy -3.175 -2.413) (xy 3.1877 -2.413) (xy 3.1877 2.4257)) (layer F.SilkS) (width 0.01))
  (fp_poly (pts (xy -2.473325 1.272724) (xy -2.387045 1.278326) (xy -2.322344 1.287882) (xy -2.275536 1.30274)
    (xy -2.242936 1.324247) (xy -2.220856 1.353752) (xy -2.214449 1.367363) (xy -2.201055 1.425578)
    (xy -2.207579 1.481711) (xy -2.233046 1.528005) (xy -2.234895 1.530024) (xy -2.260995 1.557806)
    (xy -2.235344 1.58102) (xy -2.205968 1.623369) (xy -2.193063 1.676903) (xy -2.196523 1.733561)
    (xy -2.216246 1.785283) (xy -2.238356 1.813022) (xy -2.267634 1.835751) (xy -2.301936 1.851331)
    (xy -2.346462 1.860931) (xy -2.406409 1.865726) (xy -2.477327 1.8669) (xy -2.6162 1.8669)
    (xy -2.6162 1.6129) (xy -2.4892 1.6129) (xy -2.4892 1.7653) (xy -2.434876 1.7653)
    (xy -2.393534 1.760692) (xy -2.358611 1.749251) (xy -2.352326 1.745529) (xy -2.329434 1.71577)
    (xy -2.325501 1.677776) (xy -2.341142 1.640882) (xy -2.345119 1.636125) (xy -2.372151 1.619418)
    (xy -2.416423 1.613066) (xy -2.427669 1.6129) (xy -2.4892 1.6129) (xy -2.6162 1.6129)
    (xy -2.6162 1.3843) (xy -2.4892 1.3843) (xy -2.4892 1.5113) (xy -2.441226 1.5113)
    (xy -2.401247 1.506047) (xy -2.367633 1.493231) (xy -2.365026 1.491529) (xy -2.342573 1.463389)
    (xy -2.33784 1.429138) (xy -2.35204 1.39954) (xy -2.373117 1.390481) (xy -2.409009 1.385022)
    (xy -2.42824 1.3843) (xy -2.4892 1.3843) (xy -2.6162 1.3843) (xy -2.6162 1.266803)
    (xy -2.473325 1.272724)) (layer F.SilkS) (width 0.01))
  (fp_poly (pts (xy -1.7907 1.3843) (xy -2.032 1.3843) (xy -2.032 1.5113) (xy -1.8288 1.5113)
    (xy -1.8288 1.6256) (xy -2.032 1.6256) (xy -2.032 1.7526) (xy -1.778 1.7526)
    (xy -1.778 1.8669) (xy -2.159 1.8669) (xy -2.159 1.27) (xy -1.7907 1.27)
    (xy -1.7907 1.3843)) (layer F.SilkS) (width 0.01))
  (fp_poly (pts (xy -1.622425 1.27007) (xy -1.540129 1.271849) (xy -1.478138 1.277898) (xy -1.43154 1.28944)
    (xy -1.395423 1.307697) (xy -1.364876 1.333891) (xy -1.364529 1.334253) (xy -1.342735 1.360414)
    (xy -1.331492 1.386807) (xy -1.327482 1.423528) (xy -1.32715 1.447928) (xy -1.328726 1.492663)
    (xy -1.335889 1.522438) (xy -1.352294 1.547618) (xy -1.368539 1.565291) (xy -1.409928 1.607994)
    (xy -1.359014 1.725382) (xy -1.337514 1.776151) (xy -1.320504 1.818597) (xy -1.310182 1.847103)
    (xy -1.3081 1.855498) (xy -1.319675 1.862301) (xy -1.350324 1.86501) (xy -1.374302 1.864388)
    (xy -1.440503 1.86055) (xy -1.490649 1.743075) (xy -1.514056 1.689487) (xy -1.531155 1.655213)
    (xy -1.545076 1.635985) (xy -1.558952 1.627537) (xy -1.575913 1.625602) (xy -1.576848 1.6256)
    (xy -1.6129 1.6256) (xy -1.6129 1.8669) (xy -1.7526 1.8669) (xy -1.7526 1.3843)
    (xy -1.6129 1.3843) (xy -1.6129 1.5113) (xy -1.550121 1.5113) (xy -1.508353 1.508783)
    (xy -1.48298 1.499255) (xy -1.467571 1.483074) (xy -1.451073 1.455116) (xy -1.452106 1.434993)
    (xy -1.47154 1.411367) (xy -1.4732 1.4097) (xy -1.505486 1.390487) (xy -1.55392 1.384305)
    (xy -1.55575 1.3843) (xy -1.6129 1.3843) (xy -1.7526 1.3843) (xy -1.7526 1.27)
    (xy -1.622425 1.27007)) (layer F.SilkS) (width 0.01))
  (fp_poly (pts (xy -0.844647 1.271772) (xy -0.836134 1.279006) (xy -0.840814 1.294932) (xy -0.859133 1.322897)
    (xy -0.891536 1.366246) (xy -0.916708 1.399425) (xy -0.948524 1.442783) (xy -0.973467 1.479257)
    (xy -0.988138 1.503738) (xy -0.9906 1.510391) (xy -0.984738 1.525734) (xy -0.968622 1.558883)
    (xy -0.944462 1.605514) (xy -0.914465 1.6613) (xy -0.9017 1.684533) (xy -0.870061 1.74253)
    (xy -0.843386 1.792855) (xy -0.823879 1.831241) (xy -0.81374 1.853424) (xy -0.8128 1.856776)
    (xy -0.824277 1.862291) (xy -0.854003 1.864874) (xy -0.885732 1.864358) (xy -0.958664 1.86055)
    (xy -1.023793 1.742163) (xy -1.088923 1.623776) (xy -1.115962 1.65815) (xy -1.131506 1.68375)
    (xy -1.139868 1.715815) (xy -1.142871 1.762555) (xy -1.143 1.779712) (xy -1.143 1.8669)
    (xy -1.27 1.8669) (xy -1.27 1.27) (xy -1.143989 1.27) (xy -1.14032 1.381125)
    (xy -1.13665 1.49225) (xy -1.055795 1.381125) (xy -0.974939 1.27) (xy -0.89947 1.27)
    (xy -0.865908 1.269885) (xy -0.844647 1.271772)) (layer F.SilkS) (width 0.01))
  (fp_poly (pts (xy -0.4191 1.3843) (xy -0.6604 1.3843) (xy -0.6604 1.5113) (xy -0.4572 1.5113)
    (xy -0.4572 1.6256) (xy -0.6604 1.6256) (xy -0.6604 1.7526) (xy -0.4064 1.7526)
    (xy -0.4064 1.8669) (xy -0.7874 1.8669) (xy -0.7874 1.27) (xy -0.4191 1.27)
    (xy -0.4191 1.3843)) (layer F.SilkS) (width 0.01))
  (fp_poly (pts (xy -0.2286 1.7526) (xy 0.0127 1.7526) (xy 0.0127 1.8669) (xy -0.3556 1.8669)
    (xy -0.3556 1.27) (xy -0.2286 1.27) (xy -0.2286 1.7526)) (layer F.SilkS) (width 0.01))
  (fp_poly (pts (xy 0.4318 1.3843) (xy 0.1905 1.3843) (xy 0.1905 1.5113) (xy 0.3937 1.5113)
    (xy 0.3937 1.6256) (xy 0.1905 1.6256) (xy 0.1905 1.7526) (xy 0.4445 1.7526)
    (xy 0.4445 1.8669) (xy 0.0635 1.8669) (xy 0.0635 1.27) (xy 0.4318 1.27)
    (xy 0.4318 1.3843)) (layer F.SilkS) (width 0.01))
  (fp_poly (pts (xy 0.714155 1.517586) (xy 0.838447 1.27) (xy 0.901823 1.27) (xy 0.938006 1.27228)
    (xy 0.96095 1.278109) (xy 0.9652 1.282654) (xy 0.959281 1.297616) (xy 0.942964 1.330514)
    (xy 0.918407 1.3772) (xy 0.887768 1.433532) (xy 0.86995 1.465614) (xy 0.7747 1.63592)
    (xy 0.7747 1.8669) (xy 0.6477 1.8669) (xy 0.6477 1.63285) (xy 0.55245 1.458868)
    (xy 0.51981 1.398796) (xy 0.49199 1.346731) (xy 0.471079 1.306651) (xy 0.459164 1.282534)
    (xy 0.4572 1.277443) (xy 0.468662 1.273291) (xy 0.498117 1.27059) (xy 0.524183 1.27)
    (xy 0.591167 1.27) (xy 0.714155 1.517586)) (layer F.SilkS) (width 0.01))
  (fp_poly (pts (xy 1.3462 1.7526) (xy 1.5875 1.7526) (xy 1.5875 1.8669) (xy 1.2192 1.8669)
    (xy 1.2192 1.27) (xy 1.3462 1.27) (xy 1.3462 1.7526)) (layer F.SilkS) (width 0.01))
  (fp_poly (pts (xy 2.030721 1.546225) (xy 2.053756 1.627061) (xy 2.074722 1.700554) (xy 2.092526 1.762886)
    (xy 2.106079 1.810238) (xy 2.114289 1.838794) (xy 2.116003 1.844675) (xy 2.116571 1.857554)
    (xy 2.104884 1.864264) (xy 2.075655 1.866696) (xy 2.053926 1.8669) (xy 1.985241 1.8669)
    (xy 1.96961 1.79705) (xy 1.953978 1.7272) (xy 1.791409 1.7272) (xy 1.750797 1.8669)
    (xy 1.688198 1.8669) (xy 1.652131 1.865159) (xy 1.62923 1.860716) (xy 1.625033 1.857375)
    (xy 1.628125 1.842935) (xy 1.63711 1.80755) (xy 1.651052 1.75474) (xy 1.669016 1.688023)
    (xy 1.689522 1.6129) (xy 1.818147 1.6129) (xy 1.867923 1.6129) (xy 1.899281 1.610748)
    (xy 1.916349 1.605384) (xy 1.917409 1.603375) (xy 1.914255 1.587186) (xy 1.90622 1.553464)
    (xy 1.894979 1.509213) (xy 1.893867 1.50495) (xy 1.870614 1.41605) (xy 1.855244 1.4732)
    (xy 1.843063 1.518692) (xy 1.831612 1.561766) (xy 1.82901 1.571625) (xy 1.818147 1.6129)
    (xy 1.689522 1.6129) (xy 1.690064 1.610918) (xy 1.704396 1.558925) (xy 1.784327 1.27)
    (xy 1.952047 1.27) (xy 2.030721 1.546225)) (layer F.SilkS) (width 0.01))
  (fp_poly (pts (xy 2.360273 1.273777) (xy 2.43914 1.285754) (xy 2.497277 1.306898) (xy 2.536492 1.338176)
    (xy 2.558596 1.380555) (xy 2.5654 1.433893) (xy 2.558065 1.492815) (xy 2.541892 1.524817)
    (xy 2.527879 1.544356) (xy 2.526305 1.560313) (xy 2.53803 1.582585) (xy 2.548242 1.597846)
    (xy 2.572616 1.653349) (xy 2.576674 1.712371) (xy 2.56203 1.768713) (xy 2.530296 1.816179)
    (xy 2.483085 1.848569) (xy 2.482979 1.848614) (xy 2.439244 1.859356) (xy 2.370753 1.865424)
    (xy 2.299107 1.8669) (xy 2.159 1.8669) (xy 2.159 1.6129) (xy 2.286 1.6129)
    (xy 2.286 1.7653) (xy 2.34315 1.7653) (xy 2.392188 1.759489) (xy 2.424876 1.740711)
    (xy 2.4257 1.7399) (xy 2.448126 1.704401) (xy 2.44805 1.669814) (xy 2.428162 1.64028)
    (xy 2.391153 1.619939) (xy 2.34315 1.6129) (xy 2.286 1.6129) (xy 2.159 1.6129)
    (xy 2.159 1.3843) (xy 2.286 1.3843) (xy 2.286 1.5113) (xy 2.333974 1.5113)
    (xy 2.373953 1.506047) (xy 2.407567 1.493231) (xy 2.410174 1.491529) (xy 2.435305 1.463644)
    (xy 2.438223 1.434787) (xy 2.421583 1.409151) (xy 2.38804 1.390928) (xy 2.342242 1.3843)
    (xy 2.286 1.3843) (xy 2.159 1.3843) (xy 2.159 1.27) (xy 2.258866 1.27)
    (xy 2.360273 1.273777)) (layer F.SilkS) (width 0.01))
  (fp_poly (pts (xy -0.547321 -1.428962) (xy -0.313098 -1.394444) (xy -0.254897 -1.382626) (xy -0.060411 -1.331961)
    (xy 0.137309 -1.26395) (xy 0.333978 -1.180859) (xy 0.52531 -1.084949) (xy 0.707021 -0.978485)
    (xy 0.874826 -0.863729) (xy 1.024438 -0.742946) (xy 1.110909 -0.661255) (xy 1.199468 -0.5715)
    (xy 1.4859 -0.5715) (xy 1.4859 1.016) (xy 1.3589 1.016) (xy 1.3589 -0.4572)
    (xy 1.102348 -0.4572) (xy 1.011549 -0.537512) (xy 0.811541 -0.702133) (xy 0.602767 -0.850587)
    (xy 0.388192 -0.981234) (xy 0.17078 -1.092429) (xy -0.046504 -1.182532) (xy -0.260696 -1.2499)
    (xy -0.286291 -1.256439) (xy -0.543297 -1.308291) (xy -0.802965 -1.336364) (xy -1.066535 -1.340632)
    (xy -1.335243 -1.321073) (xy -1.610329 -1.27766) (xy -1.835956 -1.225704) (xy -1.984233 -1.183622)
    (xy -2.130907 -1.135699) (xy -2.267907 -1.084734) (xy -2.380088 -1.03682) (xy -2.425792 -1.016701)
    (xy -2.462214 -1.002557) (xy -2.483737 -0.996486) (xy -2.48698 -0.996847) (xy -2.490002 -1.000641)
    (xy -2.488799 -1.005028) (xy -2.480261 -1.011818) (xy -2.461283 -1.022818) (xy -2.428757 -1.039838)
    (xy -2.379576 -1.064686) (xy -2.31447 -1.097252) (xy -2.153857 -1.173062) (xy -1.990791 -1.241688)
    (xy -1.830674 -1.301148) (xy -1.67891 -1.349461) (xy -1.540902 -1.384645) (xy -1.51765 -1.389488)
    (xy -1.283244 -1.42606) (xy -1.03899 -1.444805) (xy -0.791483 -1.445761) (xy -0.547321 -1.428962)) (layer F.SilkS) (width 0.01))
  (fp_poly (pts (xy 1.879871 -0.906768) (xy 1.886736 -0.88265) (xy 1.890108 -0.86209) (xy 1.893043 -0.828369)
    (xy 1.895566 -0.780103) (xy 1.897702 -0.715905) (xy 1.899478 -0.634389) (xy 1.900917 -0.534169)
    (xy 1.902046 -0.413859) (xy 1.90289 -0.272072) (xy 1.903474 -0.107424) (xy 1.90378 0.047625)
    (xy 1.905 0.9144) (xy 1.8288 0.9144) (xy 1.8288 0.070475) (xy 1.828901 -0.107344)
    (xy 1.82925 -0.261625) (xy 1.829909 -0.394229) (xy 1.830945 -0.507018) (xy 1.832421 -0.601853)
    (xy 1.834401 -0.680595) (xy 1.836951 -0.745106) (xy 1.840135 -0.797247) (xy 1.844017 -0.83888)
    (xy 1.848663 -0.871866) (xy 1.854136 -0.898066) (xy 1.860501 -0.919341) (xy 1.863395 -0.9271)
    (xy 1.870316 -0.927943) (xy 1.879871 -0.906768)) (layer F.SilkS) (width 0.01))
  (fp_poly (pts (xy 2.46981 -0.919656) (xy 2.483867 -0.887204) (xy 2.493861 -0.858163) (xy 2.497996 -0.843479)
    (xy 2.501551 -0.82496) (xy 2.504568 -0.800717) (xy 2.507091 -0.768859) (xy 2.509162 -0.727494)
    (xy 2.510823 -0.674734) (xy 2.512118 -0.608686) (xy 2.51309 -0.52746) (xy 2.51378 -0.429167)
    (xy 2.514232 -0.311914) (xy 2.514488 -0.173812) (xy 2.514591 -0.01297) (xy 2.5146 0.059412)
    (xy 2.5146 0.9144) (xy 2.413 0.9144) (xy 2.413 0.046712) (xy 2.413053 -0.125293)
    (xy 2.413239 -0.273765) (xy 2.413601 -0.400572) (xy 2.41418 -0.507581) (xy 2.415017 -0.59666)
    (xy 2.416153 -0.669677) (xy 2.41763 -0.728498) (xy 2.419489 -0.774991) (xy 2.421772 -0.811023)
    (xy 2.42452 -0.838462) (xy 2.427775 -0.859175) (xy 2.431578 -0.87503) (xy 2.433585 -0.881392)
    (xy 2.447016 -0.915846) (xy 2.458309 -0.928902) (xy 2.46981 -0.919656)) (layer F.SilkS) (width 0.01))
  (fp_poly (pts (xy -2.306248 -0.326312) (xy -2.253471 -0.321169) (xy -2.21409 -0.312661) (xy -2.20372 -0.308252)
    (xy -2.194142 -0.300173) (xy -2.200931 -0.293344) (xy -2.227443 -0.285937) (xy -2.255119 -0.28028)
    (xy -2.300544 -0.271414) (xy -2.33916 -0.263748) (xy -2.357232 -0.260059) (xy -2.374032 -0.251764)
    (xy -2.384398 -0.23149) (xy -2.39139 -0.192858) (xy -2.392046 -0.187534) (xy -2.396647 -0.135298)
    (xy -2.399606 -0.075023) (xy -2.40019 -0.042176) (xy -2.4003 0.036299) (xy -2.473325 0.050399)
    (xy -2.518724 0.059265) (xy -2.557798 0.067067) (xy -2.575204 0.070661) (xy -2.600951 0.06931)
    (xy -2.610392 0.060318) (xy -2.611916 0.041515) (xy -2.611143 0.003369) (xy -2.608292 -0.048188)
    (xy -2.604629 -0.095499) (xy -2.598902 -0.15714) (xy -2.593377 -0.199038) (xy -2.586428 -0.22678)
    (xy -2.576426 -0.245958) (xy -2.561746 -0.262161) (xy -2.554064 -0.269182) (xy -2.515917 -0.295073)
    (xy -2.470445 -0.315448) (xy -2.461123 -0.318284) (xy -2.418457 -0.325196) (xy -2.364038 -0.327763)
    (xy -2.306248 -0.326312)) (layer F.SilkS) (width 0.01))
  (fp_poly (pts (xy -1.199931 -0.321522) (xy -1.147787 -0.316564) (xy -1.107132 -0.308947) (xy -1.083389 -0.299556)
    (xy -1.0795 -0.293802) (xy -1.09108 -0.287362) (xy -1.121784 -0.279126) (xy -1.165557 -0.270644)
    (xy -1.177057 -0.268788) (xy -1.223531 -0.261224) (xy -1.258936 -0.254823) (xy -1.276957 -0.250743)
    (xy -1.277972 -0.250263) (xy -1.280006 -0.237033) (xy -1.283018 -0.20359) (xy -1.286592 -0.15508)
    (xy -1.290092 -0.100342) (xy -1.298854 0.046222) (xy -1.386263 0.061211) (xy -1.432049 0.068727)
    (xy -1.468545 0.074106) (xy -1.487952 0.076199) (xy -1.488075 0.0762) (xy -1.494267 0.06778)
    (xy -1.497383 0.040996) (xy -1.497522 -0.006442) (xy -1.494784 -0.076824) (xy -1.494756 -0.077392)
    (xy -1.490618 -0.138519) (xy -1.485075 -0.191137) (xy -1.478855 -0.229602) (xy -1.472739 -0.248206)
    (xy -1.436202 -0.277014) (xy -1.382217 -0.300899) (xy -1.318644 -0.317125) (xy -1.258141 -0.322938)
    (xy -1.199931 -0.321522)) (layer F.SilkS) (width 0.01))
  (fp_poly (pts (xy 1.073647 -0.324183) (xy 1.104355 -0.317717) (xy 1.136848 -0.306397) (xy 1.145258 -0.296225)
    (xy 1.129209 -0.286837) (xy 1.088324 -0.277873) (xy 1.058257 -0.273411) (xy 1.015505 -0.266553)
    (xy 0.986153 -0.256536) (xy 0.967288 -0.238877) (xy 0.955994 -0.209092) (xy 0.949359 -0.162698)
    (xy 0.944685 -0.098693) (xy 0.940001 -0.035808) (xy 0.934835 0.005803) (xy 0.928347 0.030265)
    (xy 0.919696 0.041701) (xy 0.915721 0.043474) (xy 0.894841 0.048257) (xy 0.859156 0.055382)
    (xy 0.817151 0.063281) (xy 0.77731 0.070385) (xy 0.748118 0.075126) (xy 0.738678 0.0762)
    (xy 0.736985 0.064334) (xy 0.73673 0.031989) (xy 0.737856 -0.015958) (xy 0.740307 -0.074632)
    (xy 0.740444 -0.077392) (xy 0.745119 -0.14597) (xy 0.751308 -0.200644) (xy 0.758437 -0.237172)
    (xy 0.763759 -0.24977) (xy 0.803658 -0.281281) (xy 0.861468 -0.305849) (xy 0.930317 -0.322102)
    (xy 1.003333 -0.32867) (xy 1.073647 -0.324183)) (layer F.SilkS) (width 0.01))
  (fp_poly (pts (xy -1.773278 -0.32837) (xy -1.708548 -0.323834) (xy -1.666947 -0.316959) (xy -1.648941 -0.30831)
    (xy -1.654996 -0.298455) (xy -1.685576 -0.287961) (xy -1.732522 -0.278747) (xy -1.779171 -0.270319)
    (xy -1.815022 -0.262145) (xy -1.83358 -0.255749) (xy -1.834669 -0.25478) (xy -1.837493 -0.239453)
    (xy -1.841219 -0.204259) (xy -1.845329 -0.154689) (xy -1.848749 -0.105181) (xy -1.857689 0.0361)
    (xy -1.93636 0.0498) (xy -1.989059 0.059194) (xy -2.024414 0.063222) (xy -2.045581 0.05826)
    (xy -2.055713 0.040685) (xy -2.057967 0.006877) (xy -2.055498 -0.046789) (xy -2.053353 -0.084524)
    (xy -2.049287 -0.150114) (xy -2.04469 -0.195507) (xy -2.038521 -0.225901) (xy -2.029735 -0.246495)
    (xy -2.017747 -0.262004) (xy -1.96943 -0.298311) (xy -1.904878 -0.320418) (xy -1.821763 -0.328958)
    (xy -1.773278 -0.32837)) (layer F.SilkS) (width 0.01))
  (fp_poly (pts (xy -0.654078 -0.327721) (xy -0.590241 -0.322626) (xy -0.549247 -0.315543) (xy -0.531649 -0.306952)
    (xy -0.538002 -0.297334) (xy -0.568861 -0.28717) (xy -0.600063 -0.280888) (xy -0.645345 -0.273498)
    (xy -0.68224 -0.268367) (xy -0.700879 -0.2667) (xy -0.712708 -0.254566) (xy -0.722678 -0.220355)
    (xy -0.730295 -0.167351) (xy -0.735063 -0.09884) (xy -0.73651 -0.029879) (xy -0.7366 0.035492)
    (xy -0.817016 0.049496) (xy -0.870489 0.059029) (xy -0.906336 0.063145) (xy -0.927797 0.058223)
    (xy -0.938111 0.040642) (xy -0.940518 0.00678) (xy -0.938256 -0.046983) (xy -0.936317 -0.083864)
    (xy -0.932586 -0.149014) (xy -0.928271 -0.194024) (xy -0.922319 -0.224151) (xy -0.913678 -0.24465)
    (xy -0.901295 -0.260779) (xy -0.900767 -0.261345) (xy -0.852289 -0.298173) (xy -0.78847 -0.32041)
    (xy -0.706716 -0.328753) (xy -0.654078 -0.327721)) (layer F.SilkS) (width 0.01))
  (fp_poly (pts (xy -0.092126 -0.327608) (xy -0.02597 -0.323149) (xy 0.017941 -0.316564) (xy 0.038948 -0.308336)
    (xy 0.036391 -0.298951) (xy 0.00961 -0.288894) (xy -0.028563 -0.280888) (xy -0.07385 -0.273498)
    (xy -0.110757 -0.268367) (xy -0.129407 -0.2667) (xy -0.141949 -0.254519) (xy -0.152226 -0.219921)
    (xy -0.159783 -0.165823) (xy -0.164165 -0.095144) (xy -0.1651 -0.037541) (xy -0.1651 0.035492)
    (xy -0.245516 0.049496) (xy -0.302082 0.058694) (xy -0.338273 0.06232) (xy -0.358559 0.060079)
    (xy -0.367411 0.051673) (xy -0.36923 0.041275) (xy -0.369716 -0.00579) (xy -0.368278 -0.064256)
    (xy -0.365363 -0.124581) (xy -0.361415 -0.17722) (xy -0.357553 -0.208948) (xy -0.350261 -0.238465)
    (xy -0.336546 -0.259452) (xy -0.310248 -0.278746) (xy -0.279283 -0.29584) (xy -0.244124 -0.313294)
    (xy -0.214595 -0.323758) (xy -0.182561 -0.328614) (xy -0.139887 -0.329242) (xy -0.092126 -0.327608)) (layer F.SilkS) (width 0.01))
  (fp_poly (pts (xy 0.523875 -0.331099) (xy 0.562841 -0.3214) (xy 0.589335 -0.311969) (xy 0.5969 -0.306156)
    (xy 0.585358 -0.299708) (xy 0.55494 -0.2916) (xy 0.511949 -0.283477) (xy 0.506909 -0.282683)
    (xy 0.461571 -0.274803) (xy 0.426754 -0.267144) (xy 0.409504 -0.261274) (xy 0.409105 -0.26094)
    (xy 0.402689 -0.243305) (xy 0.396016 -0.206782) (xy 0.389872 -0.157859) (xy 0.385043 -0.103026)
    (xy 0.382313 -0.048774) (xy 0.382071 -0.037511) (xy 0.381 0.032929) (xy 0.291864 0.048214)
    (xy 0.245648 0.055811) (xy 0.208697 0.061283) (xy 0.188706 0.063495) (xy 0.188321 0.0635)
    (xy 0.181961 0.054965) (xy 0.1789 0.027819) (xy 0.179029 -0.020252) (xy 0.181601 -0.079932)
    (xy 0.1853 -0.139189) (xy 0.189445 -0.19005) (xy 0.19349 -0.226558) (xy 0.196442 -0.241857)
    (xy 0.221238 -0.273921) (xy 0.265573 -0.301138) (xy 0.323804 -0.321969) (xy 0.390286 -0.334876)
    (xy 0.459376 -0.338322) (xy 0.523875 -0.331099)) (layer F.SilkS) (width 0.01))
  (fp_poly (pts (xy 2.021378 -0.742291) (xy 2.029941 -0.738066) (xy 2.036081 -0.729269) (xy 2.040116 -0.71231)
    (xy 2.04236 -0.683597) (xy 2.04313 -0.639541) (xy 2.042743 -0.57655) (xy 2.041814 -0.510228)
    (xy 2.03835 -0.28575) (xy 2.006124 -0.281992) (xy 1.978383 -0.282331) (xy 1.964849 -0.287284)
    (xy 1.961885 -0.302373) (xy 1.959328 -0.338536) (xy 1.957351 -0.391447) (xy 1.956124 -0.456781)
    (xy 1.9558 -0.515108) (xy 1.95606 -0.595554) (xy 1.957059 -0.654154) (xy 1.959123 -0.694463)
    (xy 1.962579 -0.720031) (xy 1.967753 -0.73441) (xy 1.974971 -0.741154) (xy 1.976639 -0.74188)
    (xy 2.00629 -0.745031) (xy 2.021378 -0.742291)) (layer F.SilkS) (width 0.01))
  (fp_poly (pts (xy 2.181225 -0.741518) (xy 2.189655 -0.733484) (xy 2.195836 -0.719074) (xy 2.200212 -0.694488)
    (xy 2.203224 -0.655929) (xy 2.205318 -0.599596) (xy 2.206935 -0.52169) (xy 2.206946 -0.521022)
    (xy 2.207845 -0.436423) (xy 2.206833 -0.373945) (xy 2.203268 -0.330338) (xy 2.196504 -0.302354)
    (xy 2.185897 -0.286744) (xy 2.170802 -0.280261) (xy 2.159 -0.2794) (xy 2.131844 -0.288559)
    (xy 2.122133 -0.296964) (xy 2.115977 -0.316388) (xy 2.112086 -0.357772) (xy 2.110407 -0.422197)
    (xy 2.110887 -0.510745) (xy 2.111053 -0.521022) (xy 2.112668 -0.599102) (xy 2.114756 -0.655581)
    (xy 2.117761 -0.694258) (xy 2.122124 -0.718933) (xy 2.128291 -0.733405) (xy 2.136703 -0.741473)
    (xy 2.136775 -0.741518) (xy 2.164104 -0.748729) (xy 2.181225 -0.741518)) (layer F.SilkS) (width 0.01))
  (fp_poly (pts (xy 2.332993 -0.737552) (xy 2.342242 -0.729343) (xy 2.350219 -0.717101) (xy 2.355827 -0.696324)
    (xy 2.359438 -0.663082) (xy 2.361427 -0.613446) (xy 2.362166 -0.543486) (xy 2.3622 -0.518958)
    (xy 2.36134 -0.448161) (xy 2.35896 -0.386296) (xy 2.355361 -0.338265) (xy 2.350841 -0.30897)
    (xy 2.349053 -0.303966) (xy 2.328139 -0.286092) (xy 2.298106 -0.279001) (xy 2.27208 -0.285334)
    (xy 2.269066 -0.287867) (xy 2.264831 -0.304607) (xy 2.261934 -0.341482) (xy 2.260294 -0.393268)
    (xy 2.259834 -0.454742) (xy 2.260473 -0.520677) (xy 2.262131 -0.58585) (xy 2.264731 -0.645037)
    (xy 2.268192 -0.693011) (xy 2.272435 -0.72455) (xy 2.275839 -0.73406) (xy 2.303552 -0.748434)
    (xy 2.332993 -0.737552)) (layer F.SilkS) (width 0.01))
  (fp_poly (pts (xy 2.164642 -1.480231) (xy 2.179752 -1.451175) (xy 2.201591 -1.40472) (xy 2.228748 -1.343933)
    (xy 2.259812 -1.271882) (xy 2.284172 -1.213869) (xy 2.321352 -1.123946) (xy 2.349652 -1.054041)
    (xy 2.370142 -1.000802) (xy 2.383891 -0.960876) (xy 2.391968 -0.93091) (xy 2.395442 -0.907553)
    (xy 2.395384 -0.887453) (xy 2.393477 -0.871226) (xy 2.386129 -0.836769) (xy 2.377449 -0.815785)
    (xy 2.373457 -0.8128) (xy 2.362336 -0.821916) (xy 2.3622 -0.823592) (xy 2.357549 -0.838013)
    (xy 2.344535 -0.872339) (xy 2.324559 -0.923026) (xy 2.299024 -0.986532) (xy 2.269334 -1.059314)
    (xy 2.256144 -1.091358) (xy 2.150088 -1.348334) (xy 2.062469 -1.150442) (xy 2.026236 -1.069925)
    (xy 1.998516 -1.011591) (xy 1.978461 -0.974011) (xy 1.965223 -0.955757) (xy 1.957952 -0.955401)
    (xy 1.9558 -0.970818) (xy 1.9603 -0.987391) (xy 1.97267 -1.023139) (xy 1.991213 -1.073706)
    (xy 2.014231 -1.134737) (xy 2.040027 -1.201879) (xy 2.066904 -1.270776) (xy 2.093165 -1.337072)
    (xy 2.117112 -1.396414) (xy 2.137049 -1.444446) (xy 2.151278 -1.476813) (xy 2.157673 -1.488819)
    (xy 2.164642 -1.480231)) (layer F.SilkS) (width 0.01))
  (fp_poly (pts (xy -0.819126 -1.797489) (xy -0.786123 -1.781223) (xy -0.739546 -1.756803) (xy -0.683649 -1.726429)
    (xy -0.657371 -1.711842) (xy -0.493471 -1.620284) (xy -0.501789 -1.575948) (xy -0.51011 -1.546089)
    (xy -0.525611 -1.523092) (xy -0.554053 -1.50045) (xy -0.586512 -1.480281) (xy -0.610304 -1.46768)
    (xy -0.620381 -1.471113) (xy -0.624612 -1.493154) (xy -0.629164 -1.507721) (xy -0.641324 -1.522862)
    (xy -0.66437 -1.540939) (xy -0.701581 -1.564313) (xy -0.756234 -1.595347) (xy -0.798604 -1.618542)
    (xy -0.968558 -1.710861) (xy -1.147485 -1.63082) (xy -1.209367 -1.60364) (xy -1.26272 -1.581158)
    (xy -1.30345 -1.565025) (xy -1.327461 -1.556891) (xy -1.332073 -1.556439) (xy -1.332442 -1.566586)
    (xy -1.317872 -1.574839) (xy -1.284755 -1.591644) (xy -1.237227 -1.615035) (xy -1.17942 -1.643047)
    (xy -1.115472 -1.673714) (xy -1.049515 -1.705071) (xy -0.985686 -1.735152) (xy -0.928118 -1.761991)
    (xy -0.880946 -1.783622) (xy -0.848306 -1.79808) (xy -0.834331 -1.8034) (xy -0.834304 -1.8034)
    (xy -0.819126 -1.797489)) (layer F.SilkS) (width 0.01))
)
