(module phoenix4p45deg (layer F.Cu) (tedit 651C105A)
  (fp_text reference REF** (at 0 0.5) (layer F.SilkS)
    (effects (font (size 1 1) (thickness 0.15)))
  )
  (fp_text value phoenix4p45deg (at 0 -0.5) (layer F.Fab)
    (effects (font (size 1 1) (thickness 0.15)))
  )
  (fp_line (start 10.015 5.4) (end -10.535 5.4) (layer F.Fab) (width 0.2))
  (fp_line (start 11.015 -7.6) (end 11.015 6.4) (layer F.CrtYd) (width 0.05))
  (fp_line (start -10.535 5.4) (end -10.535 -6.6) (layer F.Fab) (width 0.2))
  (fp_line (start 11.015 6.4) (end -11.535 6.4) (layer F.CrtYd) (width 0.05))
  (fp_line (start -11.535 -7.6) (end 11.015 -7.6) (layer F.CrtYd) (width 0.05))
  (fp_line (start -11.535 6.4) (end -11.535 -7.6) (layer F.CrtYd) (width 0.05))
  (fp_line (start -10.535 -6.6) (end 10.015 -6.6) (layer F.Fab) (width 0.2))
  (fp_line (start 10.015 -6.6) (end 10.015 5.4) (layer F.Fab) (width 0.2))
  (fp_line (start -10.535 5.4) (end -10.535 -6.6) (layer F.SilkS) (width 0.1))
  (fp_line (start 10.015 -6.6) (end 10.015 5.4) (layer F.SilkS) (width 0.1))
  (fp_text user %R (at -6.5 2.5) (layer F.Fab)
    (effects (font (size 1.27 1.27) (thickness 0.254)))
  )
  (fp_text user 1751189 (at -6.5 2.5) (layer F.SilkS) hide
    (effects (font (size 1.27 1.27) (thickness 0.254)))
  )
  (fp_text user J** (at -6.5 2.5) (layer F.SilkS)
    (effects (font (size 1.27 1.27) (thickness 0.254)))
  )
  (pad 4 thru_hole circle (at -2.67 -4.5) (size 2.1 2.1) (drill 1.4) (layers *.Cu *.Mask))
  (pad 8 thru_hole circle (at 7.49 -4.5) (size 2.1 2.1) (drill 1.4) (layers *.Cu *.Mask))
  (pad 6 thru_hole circle (at 2.41 -4.5 90) (size 2.1 2.1) (drill 1.4) (layers *.Cu *.Mask))
  (pad 2 thru_hole circle (at -7.75 -4.5) (size 2.1 2.1) (drill 1.4) (layers *.Cu *.Mask))
  (pad 3 thru_hole circle (at -2.67 2.5) (size 2.1 2.1) (drill 1.4) (layers *.Cu *.Mask))
  (pad 1 thru_hole circle (at -7.75 2.5) (size 2.1 2.1) (drill 1.4) (layers *.Cu *.Mask))
  (pad 7 thru_hole circle (at 7.49 2.5) (size 2.1 2.1) (drill 1.4) (layers *.Cu *.Mask))
  (pad 5 thru_hole circle (at 2.41 2.5) (size 2.1 2.1) (drill 1.4) (layers *.Cu *.Mask))
)
